{
  "$schema": "http://json.schemastore.org/template",
  "author": "Quirin Sailer",
    "classifications": [ "WebApi", "Console" ],
    "identity": "FTPlain",
    "name": "FastTemplate",
    "shortName": "ftplain",                 
  "tags": {
    "language": "C#",                       
    "type":"project"
  },
  "sourceName": "FTPlain",            
  "preferNameDirectory":true
}

